4_fourth_semester/Computer_Architecture/4_bit_Binary_Counter_with_parallel_load/simulation/qsim/yusuf_gassaloglu_2020510034_HW1.msim.vcd
$comment
	File created using the following command:
		vcd file yusuf_gassaloglu_2020510034_HW1.msim.vcd -direction
$end
$date
	Sun Mar 05 14:08:28 2023
$end
$version
	ModelSim Version 10.1d
$end
$timescale
	1ps
$end
$scope module yusuf_gassaloglu_2020510034_HW1_b_vlg_vec_tst $end
$var reg 1 ! clock $end
$var reg 1 " count $end
$var reg 4 # d [0:3] $end
$var reg 1 $ load $end
$var wire 1 % carry $end
$var wire 1 & q [3] $end
$var wire 1 ' q [2] $end
$var wire 1 ( q [1] $end
$var wire 1 ) q [0] $end
$var wire 1 * sampler $end
$scope module i1 $end
$var wire 1 + gnd $end
$var wire 1 , vcc $end
$var wire 1 - unknown $end
$var tri1 1 . devclrn $end
$var tri1 1 / devpor $end
$var tri1 1 0 devoe $end
$var wire 1 1 carry~output_o $end
$var wire 1 2 q[3]~output_o $end
$var wire 1 3 q[2]~output_o $end
$var wire 1 4 q[1]~output_o $end
$var wire 1 5 q[0]~output_o $end
$var wire 1 6 clock~input_o $end
$var wire 1 7 clock~inputclkctrl_outclk $end
$var wire 1 8 inst|LPM_COUNTER_component|auto_generated|counter_comb_bita0~combout $end
$var wire 1 9 d[3]~input_o $end
$var wire 1 : load~input_o $end
$var wire 1 ; count~input_o $end
$var wire 1 < inst|LPM_COUNTER_component|auto_generated|_~0_combout $end
$var wire 1 = inst|LPM_COUNTER_component|auto_generated|counter_comb_bita0~COUT $end
$var wire 1 > inst|LPM_COUNTER_component|auto_generated|counter_comb_bita1~combout $end
$var wire 1 ? d[2]~input_o $end
$var wire 1 @ inst|LPM_COUNTER_component|auto_generated|counter_comb_bita1~COUT $end
$var wire 1 A inst|LPM_COUNTER_component|auto_generated|counter_comb_bita2~combout $end
$var wire 1 B d[1]~input_o $end
$var wire 1 C inst|LPM_COUNTER_component|auto_generated|counter_comb_bita2~COUT $end
$var wire 1 D inst|LPM_COUNTER_component|auto_generated|counter_comb_bita3~combout $end
$var wire 1 E d[0]~input_o $end
$var wire 1 F inst|LPM_COUNTER_component|auto_generated|counter_comb_bita3~COUT $end
$var wire 1 G inst|LPM_COUNTER_component|auto_generated|counter_comb_bita3~0_combout $end
$var wire 1 H inst|LPM_COUNTER_component|auto_generated|counter_reg_bit [3] $end
$var wire 1 I inst|LPM_COUNTER_component|auto_generated|counter_reg_bit [2] $end
$var wire 1 J inst|LPM_COUNTER_component|auto_generated|counter_reg_bit [1] $end
$var wire 1 K inst|LPM_COUNTER_component|auto_generated|counter_reg_bit [0] $end
$upscope $end
$upscope $end
$enddefinitions $end
#0
$dumpvars
0!
1"
b100 #
1$
0%
0)
0(
0'
0&
x*
0+
1,
x-
1.
1/
10
01
02
03
04
05
06
07
18
09
1:
1;
1<
0=
0>
0?
1@
0A
1B
0C
0D
0E
1F
0G
0K
0J
0I
0H
$end
#20000
1!
16
17
0*
1I
1A
13
1'
#40000
0"
0!
0;
06
07
1*
#60000
1!
16
17
0*
#80000
0$
1"
0!
0:
1;
06
07
1*
#100000
1!
16
17
0*
1K
1=
08
15
1)
1>
#120000
0"
0!
0;
06
07
1*
0<
#140000
1!
16
17
0*
#160000
1"
0!
1;
06
07
1*
1<
#180000
1!
16
17
0*
1J
0K
0@
0>
0=
18
14
05
1(
0)
1C
0A
1@
1>
1D
0C
1A
0D
#200000
0!
06
07
1*
#220000
1!
16
17
0*
1K
1=
08
15
1)
0@
0>
1C
0A
1D
#240000
0!
06
07
1*
#260000
1!
16
17
0*
1H
0I
0J
0K
0F
0D
0C
1A
1@
1>
0=
18
12
03
04
05
1&
0'
0(
0)
1F
1D
0A
0>
1G
11
1%
0G
01
0%
#280000
0!
06
07
1*
#300000
1!
16
17
0*
1K
1=
08
15
1)
1>
#320000
0!
06
07
1*
#340000
1!
16
17
0*
1J
0K
0@
0>
0=
18
14
05
1(
0)
1A
1@
1>
0A
#360000
0!
06
07
1*
#380000
1!
16
17
0*
1K
1=
08
15
1)
0@
0>
1A
#400000
0!
06
07
1*
#420000
1!
16
17
0*
1I
0J
0K
1C
0A
1@
1>
0=
18
13
04
05
1'
0(
0)
0F
0D
0C
1A
0>
1F
1D
1G
11
1%
0G
01
0%
#440000
0!
06
07
1*
#460000
1!
16
17
0*
1K
1=
08
15
1)
1>
#480000
0!
06
07
1*
#500000
1!
16
17
0*
1J
0K
0@
0>
0=
18
14
05
1(
0)
1C
0A
1@
1>
0F
0D
0C
1A
1F
1D
1G
11
1%
0G
01
0%
#520000
0!
06
07
1*
#540000
1!
16
17
0*
1K
1=
08
15
1)
0@
0>
1C
0A
0F
0D
1G
11
1%
#560000
0!
06
07
1*
#580000
1!
16
17
0*
0H
0I
0J
0K
1F
1D
0C
1A
1@
1>
0=
18
02
03
04
05
0&
0'
0(
0)
0D
0A
0>
0G
01
0%
#600000
0!
06
07
1*
#620000
1!
16
17
0*
1K
1=
08
15
1)
1>
#640000
0!
06
07
1*
#660000
1!
16
17
0*
1J
0K
0@
0>
0=
18
14
05
1(
0)
1A
1@
1>
0A
#680000
0!
06
07
1*
#700000
1!
16
17
0*
1K
1=
08
15
1)
0@
0>
1A
#720000
0!
06
07
1*
#740000
1!
16
17
0*
1I
0J
0K
1C
0A
1@
1>
0=
18
13
04
05
1'
0(
0)
1D
0C
1A
0>
0D
#760000
0!
06
07
1*
#780000
1!
16
17
0*
1K
1=
08
15
1)
1>
#800000
0!
06
07
1*
#820000
1!
16
17
0*
1J
0K
0@
0>
0=
18
14
05
1(
0)
1C
0A
1@
1>
1D
0C
1A
0D
#840000
0!
06
07
1*
#860000
1!
16
17
0*
1K
1=
08
15
1)
0@
0>
1C
0A
1D
#880000
0!
06
07
1*
#900000
1!
16
17
0*
1H
0I
0J
0K
0F
0D
0C
1A
1@
1>
0=
18
12
03
04
05
1&
0'
0(
0)
1F
1D
0A
0>
1G
11
1%
0G
01
0%
#920000
0!
06
07
1*
#940000
1!
16
17
0*
1K
1=
08
15
1)
1>
#960000
0!
06
07
1*
#980000
1!
16
17
0*
1J
0K
0@
0>
0=
18
14
05
1(
0)
1A
1@
1>
0A
